{"paging":{"page":1,"total":22,"page_size":20,"pages":2},"teams":[{"id":3976,"shortname":"paying_it_forward","name":"Paying It Forward","category":"Common Interest","image":{"id":248342,"template_id":1},"whereabouts":"The World","loan_because":"We feel our lives have benefitted from the generosity of others and want to \"Pay It Forward' by helping others through Kiva loans.  Join us if you want to return some favours to the world.","description":"The cost of one 'dinner out for two' is enough for people working their way out of poverty to have the chance to improve their lives. Repaid loans can continue to be relent over and over into the future, helping many hundreds in our lifetimes.","website_url":"","team_since":"2008-12-29T16:57:49Z","membership_type":"open","member_count":278,"loan_count":13143,"loaned_amount":350900},{"id":141,"shortname":"women_empowering_women","name":"women empowering women","category":"Common Interest","image":{"id":196076,"template_id":1},"whereabouts":"global","loan_because":"empower a woman, change the world.","description":"","website_url":"","team_since":"2008-08-29T21:58:01Z","membership_type":"open","member_count":3194,"loan_count":31086,"loaned_amount":869675},{"id":96,"shortname":"kiva_mormons","name":"Kiva Mormons","category":"Religious Congregations","image":{"id":202419,"template_id":1},"whereabouts":"Worldwide","loan_because":"\"A man filled with the love of God\r\nis not content with blessing his \r\nfamily alone, but ranges through \r\nthe whole world, anxious to bless \r\nthe whole human race.\"\r\n\r\n- Joseph Smith","description":"Members and friends of the Church of Jesus Christ of Latter-day Saints who are also Kiva lenders.","website_url":"www.mormon.org","team_since":"2008-08-29T04:26:55Z","membership_type":"open","member_count":1449,"loan_count":54091,"loaned_amount":1561925},{"id":6970,"shortname":"friends_of_dynamically_speaking","name":"Friends of Dynamically Speaking","category":"Clubs","image":{"id":484562,"template_id":1},"whereabouts":"Lethbridge, Alberta, Canada","loan_because":"We are caring Toastmasters and friends of Toastmasters. Our goal is to encourage at least 100 generous donors to join our lending team and to make a loan.","description":"We are micro philanthropists from around the world.","website_url":"","team_since":"2009-05-30T16:11:42Z","membership_type":"open","member_count":109,"loan_count":1589,"loaned_amount":43250},{"id":94,"shortname":"atheists","name":"Atheists, Agnostics, Skeptics, Freethinkers, Secular Humanists and the Non-Religious","category":"Common Interest","image":{"id":1401504,"template_id":1},"whereabouts":"Earth","loan_because":"We care about the suffering of human beings.","description":"We know we are one human family.\r\n\r\n**New to the team? Read this: http:\/\/is.gd\/51mxq  \r\n\r\n** FriendFeed:\r\nhttp:\/\/friendfeed.com\/rooms\/aasfshnr\r\n\r\n** Facebook Group:\r\nhttp:\/\/is.gd\/lzMJ\r\n\r\nSECULAR MFI ONLY loan search:\r\nhttp:\/\/goo.gl\/wtDkJ\r\n","website_url":"http:\/\/atheist-monkey.blogspot.com\/","team_since":"2008-08-29T03:40:31Z","membership_type":"open","member_count":27534,"loan_count":454356,"loaned_amount":13277725},{"id":2172,"shortname":"unitarian_universalist_church_in_cherry_hill","name":"Unitarian Universalist Church in Cherry Hill, NJ","category":"Religious Congregations","image":{"id":309584,"template_id":1},"whereabouts":"Cherry Hill, NJ","loan_because":"Microloans are an ideal way for people to help each other obtain the resources they need to build better lives.","description":"Committed Unitarian Universalists striving to improve the lives of others.","website_url":"http:\/\/uucch.org","team_since":"2008-10-22T18:13:05Z","membership_type":"open","member_count":71,"loan_count":2040,"loaned_amount":70475},{"id":1225,"shortname":"heartland_oklahoma","name":"Heartland Oklahoma Team","category":"Local Area","image":{"id":204086,"template_id":1},"whereabouts":"OKLAHOMA","loan_because":"Oklahomans are always willing to lend a hand to our neighbors as well as to total strangers. ","description":"An active team of Oklahomans joining together to fund loans, work toward goals, and have fun with Kiva loan challenges.","website_url":"","team_since":"2008-09-17T01:19:00Z","membership_type":"closed","member_count":326,"loan_count":27208,"loaned_amount":713925},{"id":10374,"shortname":"urbanbridgechurch","name":"Urban Bridge Church","category":"Religious Congregations","image":{"id":436855,"template_id":1},"whereabouts":"Edmonton, Alberta, Canada","loan_because":"We are Christians.","description":"We are a small church of Christ followers who believe that loving one another and the poor is integral to our faith.","website_url":"http:\/\/urbanbridgechurch.com\/","team_since":"2009-11-28T03:57:51Z","membership_type":"open","member_count":7,"loan_count":140,"loaned_amount":3725},{"id":1525,"shortname":"kiva_dc","name":"Kiva Washington, DC","category":"Local Area","image":{"id":1219059,"template_id":1},"whereabouts":"Washington, DC","loan_because":"The international community in DC believes and understands the importance of assisting people around the world to achieve their dreams and freedoms. ","description":"","website_url":"https:\/\/www.facebook.com\/KivaDCLendingTeam","team_since":"2008-09-26T01:14:01Z","membership_type":"open","member_count":247,"loan_count":2859,"loaned_amount":78775},{"id":1312,"shortname":"tampabay","name":"Tampa Bay, Florida","category":"Local Area","image":{"id":204977,"template_id":1},"whereabouts":"Florida","loan_because":"We are a diverse group of Kiva members who share a connection by living in the Tampa Bay, Florida area.  We also want to make the world a better place.","description":"The Tampa Bay area includes the following major towns and cities:  \r\n\r\n\r\n\r\nAnna Maria, Apollo Beach, Balm, Belleair, Boca Ciega, Boyette, Bradenton, Brandon, Carrollwood, Citrus Park, Clearwater, Clearwater Beach, Dade City, Dover, Dunedin, Durant, Gibsonton, Gulfport, Indian Rocks Beach, Innisbrook, Land O' Lakes, Largo, Lithia, Longboat Key, Lutz, Kathleen, Madeira Beach, Mango, New Port Richey, Odessa, Oldsmar, Palm Harbor, Palm River, Palma Ceia, Palmetto, Pasco, Pinellas Park, Progress Village, Redington Beach, Riverview, Ruskin, Safety Harbor, Saint Pete Beach, Saint Petersburg, Sarasota, Seffner, Seminole, South Tampa, Sun City Center, Tampa, Tarpon Springs, Temple Terrace, Tierra Verde, Town 'n' Country, Treasure Island, Valrico, West Chase, Wimauma, and Zephyrhills.","website_url":"http:\/\/www.facebook.com\/KivaTampaBay","team_since":"2008-09-19T03:39:24Z","membership_type":"open","member_count":122,"loan_count":2589,"loaned_amount":68350},{"id":12351,"shortname":"lisboa","name":"Lisboa -Portugal","category":"Local Area","image":{"id":496145,"template_id":1},"whereabouts":"Portugal","loan_because":"WE CARE WE HELP","description":"","website_url":"","team_since":"2010-02-25T12:36:25Z","membership_type":"open","member_count":30,"loan_count":4298,"loaned_amount":107475},{"id":257,"shortname":"catholic_kiva","name":"Catholic Kiva","category":"Religious Congregations","image":{"id":196619,"template_id":1},"whereabouts":"Worldwide","loan_because":"It is the right thing to do.","description":"Anyone is welcome to join our group.  The team is just for fun and to help build community.","website_url":"None","team_since":"2008-08-31T04:17:38Z","membership_type":"open","member_count":1512,"loan_count":40300,"loaned_amount":1160625},{"id":22668,"shortname":"aquasource","name":"AquaSource","category":"Businesses","image":{"id":1319477,"template_id":1},"whereabouts":"Europe","loan_because":"We support taking responsibility for one's own health &amp; happiness. We understand we are all inter-dependent. We respect: hard work; those who show initiative and seek to serve and who take action.","description":"We are a network marketing company selling natural products, enabling people to run their own business and accelerate their own personal development within a supportive, positive community. We invite distributors to join our team on Kiva!","website_url":"www.aquasource.net","team_since":"2012-01-06T19:53:47Z","membership_type":"open","member_count":42,"loan_count":438,"loaned_amount":11650},{"id":312,"shortname":"spain_team","name":"Espa\u00f1a - Spain","category":"Local Area","image":{"id":196940,"template_id":1},"whereabouts":"Espa\u00f1a (Spain)","loan_because":"Kiva ofrece un medio ideal para participar activamente en el apoyo a emprendedores sin recursos que no pueden acceder a los canales normales de financiaci\u00f3n y que, gracias a los micro-cr\u00e9ditos, pueden  desarrollar una actividad empresarial que les permita, a ellos y su entorno, alcanzar una mejor calidad de vida. ","description":"Este club se cre\u00f3 con la intenci\u00f3n inicial de fomentar la participaci\u00f3n de espa\u00f1olas y espa\u00f1oles en Kiva, no obstante,  est\u00e1 abierto a todas las personas que deseen unirse a \u00e9l, sin importar su nacionalidad ni ninguna otra condici\u00f3n.\r\n \r\nEl \u00fanico referente identitario de este grupo es la solidaridad y la convicci\u00f3n de que, a trav\u00e9s de Kiva, es posible el apoyo a personas o grupos emprendedores que buscan y merecen una oportunidad por su esfuerzo.\r\n","website_url":"","team_since":"2008-08-31T23:59:17Z","membership_type":"open","member_count":610,"loan_count":19931,"loaned_amount":559525},{"id":9325,"shortname":"stuffyoushouldknow","name":"Stuff You Should Know from HowStuffWorks.com","category":"Friends","image":{"id":401562,"template_id":1},"whereabouts":"Atlanta, GA","loan_because":"We care. ","description":"Arguably the finest assemblage of people who have never met dedicated to the common purpose of hastening global peace in $25 increments. ","website_url":"http:\/\/www.youtube.com\/watch?v=gj1IJ4RxFMU","team_since":"2009-10-06T19:23:45Z","membership_type":"open","member_count":7717,"loan_count":79599,"loaned_amount":2171250},{"id":2498,"shortname":"reddit","name":"Team Reddit!","category":"Common Interest","image":{"id":342973,"template_id":1},"whereabouts":"Global","loan_because":"We redditors believe change is something that we should all take responsibility for.","description":"A group of people from the social news website reddit - started not by reddit admins, but by redditors themselves.","website_url":"http:\/\/www.reddit.com","team_since":"2008-11-07T00:22:58Z","membership_type":"open","member_count":911,"loan_count":6985,"loaned_amount":201450},{"id":107,"shortname":"norway","name":"Norway","category":"Local Area","image":{"id":852374,"template_id":1},"whereabouts":"Norway","loan_because":"We have Cold Weather - Warm hearts !\r\nWe believe that providing microloans to entrepreneurs in developing countries is the socially responsive way of helping people break the circle of poverty. \r\n\r\nWe promote Kiva.org as a sustainable and transparent way of connecting lenders and borrowers from across the globe.","description":"Bruk denne linken for \u00e5 invitere dine venner til teamet her:\r\nhttp:\/\/www.kiva.org\/team\/norway\/recruit\r\n\r\nDet er flott hvis du trykker Facebook \"anbefale\/recommend\" knappen oppe til h\u00f8yre  p\u00e5 denne siden. V\u00e5r facebookgruppe: http:\/\/www.facebook.com\/pages\/Kiva-Norway\/193432017389484\r\n\r\nAnbefalte l\u00e5n \"sikrere\" l\u00e5n: \r\nhttp:\/\/www.kiva.org\/lend?sortBy=partner_default_min=0&amp;partner;_default_max=0.5&amp;partner;_risk_rating_min=1&amp;partner;_risk_rating_max=5&amp;partner;_arrears_min=0&amp;partner;_arrears_max=1.1\r\n\r\nHjelp med \"expiring loans\": http:\/\/poverty2prosperity.org\/sosloans\/#fundraising_loans\r\n\r\nHjelp med \"postdisbursed\" l\u00e5n:\r\nhttp:\/\/kivatools.com\/fundraising\/postdisbursedloans\r\n\r\nKiva tools:\r\nhttps:\/\/www.kiva.org\/portfolio\/collections\r\nhttp:\/\/www.bhodisoft.com\/kiva-country-collector\/\r\nhttp:\/\/www.bhodisoft.com\/kfpc\/\r\nhttp:\/\/www.kivalens.org\r\n\r\nDa har vi n\u00e5dd m\u00e5let p\u00e5 2 million dollar utl\u00e5nt. Takk til alle som har bidratt!","website_url":"http:\/\/www.kiva.org\/team\/norway?default_team=norway","team_since":"2008-08-29T11:06:52Z","membership_type":"open","member_count":2519,"loan_count":80120,"loaned_amount":2258200},{"id":283,"shortname":"christians","name":"Kiva Christians","category":"Friends","image":{"id":471653,"template_id":1},"whereabouts":"Worldwide","loan_because":"Pure and undefiled religion before God the Father is this: to care for orphans and widows in their misfortune and to keep oneself unstained by the world. (Jam. 1:27)\r\n\r\nLink to information regarding Christian partners       \r\nwww.gerv.net\/info\/christian-field-partners","description":"A group of believers in Jesus Christ, brought together through a common purpose: to help those in need around the world.    \r\n","website_url":"http:\/\/whoisjesus-really.com\/","team_since":"2008-08-31T15:33:31Z","membership_type":"open","member_count":12479,"loan_count":259333,"loaned_amount":9051175},{"id":5585,"shortname":"robertkennedycollege","name":"Robert Kennedy College - Z\u00fcrich","category":"Alumni Groups","image":{"id":286497,"template_id":1},"whereabouts":"Z\u00fcrich, Switzerland","loan_because":"Microfinance is an important engine for economic development ","description":"Students, alumni and friends of the Robert Kennedy College ","website_url":"http:\/\/college.ch","team_since":"2009-03-12T04:09:04Z","membership_type":"open","member_count":75,"loan_count":1183,"loaned_amount":30800},{"id":2639,"shortname":"csr","name":"C.S.R.","category":"Clubs","image":{"id":228883,"template_id":1},"whereabouts":"Delft","loan_because":"We have enough.","description":"We are a student society of 230 Christian students from the Delft University of Technology.","website_url":"http:\/\/www.csrdelft.nl","team_since":"2008-11-13T22:53:33Z","membership_type":"open","member_count":75,"loan_count":2217,"loaned_amount":58875}]}