{"paging":{"page":1,"total":33,"page_size":20,"pages":2},"teams":[{"id":7280,"shortname":"bobharrisdotcom","name":"Friends of Bob Harris","category":"Common Interest","image":{"id":361025,"template_id":1},"whereabouts":"All over","loan_because":"After stumbling into a job as a luxury travel writer, I saw so much poverty that I decided to turn those paychecks into Kiva loans. Then I visited a bunch of clients, who were amazing, and I've written a book about it called \"The International Bank of Bob\" (Walker\/Bloomsbury, March 5, 2013).\r\n\r\nI hope the book will get more people to feel a greater understanding of Kiva, a better appreciation of the role of microfinance, and most of all, more connected to the rest of the world.\r\n","description":"People who realize that if we switched places with the recipients, they'd loan to us just as happily.  So, fair's fair.","website_url":"http:\/\/www.bank-of-bob.com","team_since":"2009-06-16T17:07:58Z","membership_type":"closed","member_count":1503,"loan_count":137330,"loaned_amount":4227300},{"id":22102,"shortname":"because_we_can___because_its_right","name":"Because it's the right thing to do!","category":"Other","image":{"id":935533,"template_id":1},"whereabouts":"","loan_because":"Becuase it's right!!!! Because we can!!!","description":"We wish to better the lives of others around the world.","website_url":"","team_since":"2011-12-01T17:56:10Z","membership_type":"open","member_count":7,"loan_count":94,"loaned_amount":2375},{"id":18077,"shortname":"milepoint","name":"milepoint","category":"Common Interest","image":{"id":868300,"template_id":1},"whereabouts":"Worldwide","loan_because":"As travelers we have seen poverty first hand and are committed to making the world a better place for all.","description":"Travelers who collect miles and points and seek free flights, hotel rooms and upgrades where possible. Here we seek to give back and invite everyone to join with us and make a difference.","website_url":"http:\/\/milepoint.com\/","team_since":"2011-02-12T18:01:45Z","membership_type":"open","member_count":2098,"loan_count":115244,"loaned_amount":6457925},{"id":23585,"shortname":"lancashire_group","name":"Lancashire Group","category":"Businesses","image":{"id":1060378,"template_id":1},"whereabouts":"UK and Bermuda","loan_because":"Our commitment to helping others is part of who we are.","description":"Lancashire is a provider of global specialty insurance and reinsurance products.","website_url":"www.lancashiregroup.com","team_since":"2012-03-29T14:07:31Z","membership_type":"open","member_count":4,"loan_count":696,"loaned_amount":26650},{"id":111,"shortname":"kiva_team_germany","name":"Kiva Team Germany","category":"Local Area","image":{"id":339952,"template_id":1},"whereabouts":"Germany","loan_because":"Showing interest in the life of others and giving a helping hand if needed is important.","description":"We are some fellows from Germany who believe in the concept of Kiva.","website_url":"http:\/\/www.kiva-germany.de","team_since":"2008-08-29T13:16:23Z","membership_type":"open","member_count":1683,"loan_count":51698,"loaned_amount":1481375},{"id":16265,"shortname":"sunrise_capitalchfa__basis_points_for_betterment","name":"Sunrise Capital\/CHFA:  Basis Points for Betterment","category":"Common Interest","image":{"id":650238,"template_id":1},"whereabouts":"San Diego and Beyond","loan_because":"just a few basis points of capital directed by the global alternative investment industry toward microfinance can empower people all around the world.","description":"We are members of Sunrise Capital Partners, the California Hedge Fund Association, and the broader global alternative investment industry (or friends thereof) committed to generating economic opportunities around the world for all.","website_url":"www.bpsforbetterment.com","team_since":"2010-11-24T17:47:40Z","membership_type":"closed","member_count":10,"loan_count":591,"loaned_amount":15475},{"id":21748,"shortname":"st_barts_penn","name":"ST Bart's Penn- kiva group","category":"Religious Congregations","image":{"id":910397,"template_id":1},"whereabouts":"wolverhampton","loan_because":"the only thing that matters is faith working through love\r\n\r\nGalatians 5-6 \r\n","description":"All welcome, group based from the congregation &amp; friends of St Bart's church &amp; School, Penn in Wolverhampton","website_url":"","team_since":"2011-11-03T23:41:21Z","membership_type":"open","member_count":13,"loan_count":124,"loaned_amount":3100},{"id":1504,"shortname":"cheesehead","name":"Cheeseheads For Change","category":"Sports Groups","image":{"id":1000582,"template_id":1},"whereabouts":"Green Bay, WI","loan_because":"If you give a man a fish, you feed him for a day.  Now in the modern world, you can give that same man a loan to buy a fishing pole, he catches fish with his new pole to feed his family, his community improves because of his financial success, he pays the loan back, and  you can re-loan that money again to help someone else buy a fishing pole . . . wait, that sounds like a conspiracy by the Rapala Corporation to sell more fishing equipment, what are we supporting here ;-)","description":"Our Kiva lending team is a non-political group consisting of Green Bay Packers fans lovingly known as Cheeseheads, and anyone who lives in or has ties to the great state of Wisconsin and is interested in making the world a better place.","website_url":"www.CheeseheadsForChange.org","team_since":"2008-09-25T13:41:01Z","membership_type":"open","member_count":491,"loan_count":8456,"loaned_amount":236575},{"id":117,"shortname":"team_europe","name":"Team Europe","category":"Local Area","image":{"id":195919,"template_id":1},"whereabouts":"Europe","loan_because":"We think Kiva is a unique opportunity for people all over the world to assist entrepreneurs in improving their businesses and communities.","description":"We are European lenders (EU, EFTA, and all those who feel they belong) who share the belief in Kiva's vision.","website_url":"","team_since":"2008-08-29T14:45:05Z","membership_type":"open","member_count":4519,"loan_count":107868,"loaned_amount":3267825},{"id":22,"shortname":"poverty2prosperity","name":"Poverty2Prosperity.org - Poverty-Escape","category":"Businesses","image":{"id":198853,"template_id":1},"whereabouts":"San Francisco Bay Area CA","loan_because":"Poverty2Prosperity.org (P2P) is all about Poverty-Escape. Please join our fun team and put Poverty-Escape in the lead!  See how to get your I'm a Kiva Loaner Bracelet and more by participating on Team P2P - visit our web site for details!","description":"One of P2P's major poverty-escaping projects is to participate in making microloans through the Kiva platform. See the web site for details on all of our projects. Also see our Perpetual Fund lender account which allows people to designate funds for perpetual loaning here on Kiva, http:\/\/www.kiva.org\/lender\/P2PPerpetualFund\r\n\r\nWe have a special purpose fund to keep loans from expiring. Please join us at http:\/\/poverty2prosperity.org\/sosloans to see currently funding loans from the SOS Loan fund.\r\n\r\nNOTE:  Poverty2Prosperity is also a non-profit, and any messages not related to Kiva or Poverty2Prosperity may be deleted.  If there is an idea you would like to share, contact one of the Team Captains to get permission.  Thank you for your consideration.","website_url":"http:\/\/Poverty2Prosperity.org","team_since":"2008-08-22T17:24:49Z","membership_type":"closed","member_count":2866,"loan_count":79966,"loaned_amount":2499250},{"id":13562,"shortname":"punahou_robotics","name":"Punahou Robotics","category":"Clubs","image":{"id":562240,"template_id":1},"whereabouts":"Honolulu, HI","loan_because":"we care.","description":"","website_url":"","team_since":"2010-05-15T03:26:06Z","membership_type":"open","member_count":6,"loan_count":122,"loaned_amount":3125},{"id":23845,"shortname":"friends_of_andy_hall","name":"Friends of Andy Hall ","category":"Clubs","image":{"id":1086024,"template_id":1},"whereabouts":"America ","loan_because":"We love people n' stuff. ","description":"Let's do Lunch! And be friends! And donate on Kiva! ","website_url":"","team_since":"2012-05-03T03:44:47Z","membership_type":"open","member_count":3,"loan_count":24,"loaned_amount":1100},{"id":20341,"shortname":"bu_class2015","name":"Belmont University Class of 2015","category":"Colleges\/Universities","image":{"id":816062,"template_id":1},"whereabouts":"Nashville, TN","loan_because":"Belmont University is a student-centered Christian community providing an academically challenging education that empowers men and women of diverse backgrounds to engage and transform the world with disciplined intelligence, compassion, courage and faith.","description":"Belmont University's Class of 2015.","website_url":"www.belmont.edu","team_since":"2011-07-17T20:43:20Z","membership_type":"open","member_count":1046,"loan_count":1016,"loaned_amount":26600},{"id":24460,"shortname":"grandkids_give","name":"Grandkids Give","category":"Families","image":{"id":1148801,"template_id":1},"whereabouts":"Oklahoma, USA","loan_because":"We loan because we have.\r\nEven the poorest in the United States have more than most of the world.\r\nIt's our duty to help others.","description":"A small family group - Grandparents to Grandkids.","website_url":"","team_since":"2012-07-21T17:33:51Z","membership_type":"open","member_count":1,"loan_count":15,"loaned_amount":600},{"id":283,"shortname":"christians","name":"Kiva Christians","category":"Friends","image":{"id":471653,"template_id":1},"whereabouts":"Worldwide","loan_because":"Pure and undefiled religion before God the Father is this: to care for orphans and widows in their misfortune and to keep oneself unstained by the world. (Jam. 1:27)\r\n\r\nLink to information regarding Christian partners       \r\nwww.gerv.net\/info\/christian-field-partners","description":"A group of believers in Jesus Christ, brought together through a common purpose: to help those in need around the world.    \r\n","website_url":"http:\/\/whoisjesus-really.com\/","team_since":"2008-08-31T15:33:31Z","membership_type":"open","member_count":12480,"loan_count":259334,"loaned_amount":9051200},{"id":9467,"shortname":"team_pbs","name":"Team PBS","category":"Common Interest","image":{"id":407227,"template_id":1},"whereabouts":"","loan_because":"Helping others help themselves, we hope to make the world a better place","description":"book lovers and hope givers","website_url":"www.paperbackswap.com","team_since":"2009-10-15T08:54:04Z","membership_type":"open","member_count":77,"loan_count":1078,"loaned_amount":27200},{"id":15521,"shortname":"setigermany","name":"SETI.Germany","category":"Common Interest","image":{"id":619016,"template_id":1},"whereabouts":"Germany","loan_because":"","description":"Germany's biggest Community for Distributed Computing","website_url":"http:\/\/www.seti-germany.de\/","team_since":"2010-10-14T13:06:59Z","membership_type":"open","member_count":57,"loan_count":2282,"loaned_amount":57900},{"id":2838,"shortname":"ewb","name":"Engineers Without Borders - Canada","category":"Other","image":{"id":229337,"template_id":1},"whereabouts":"Canada","loan_because":"We believe in the importance of the availability of opportunity. ","description":"We work in Canada and overseas to promote human development. \r\n\r\ncheck out ewb.ca","website_url":"http:\/\/ewb.ca","team_since":"2008-11-22T03:41:42Z","membership_type":"open","member_count":64,"loan_count":705,"loaned_amount":19275},{"id":13515,"shortname":"chipinforchange","name":"Chip In for Change","category":"Other","image":{"id":857556,"template_id":1},"whereabouts":"","loan_because":"it is imperative that we take action to change the current state of global poverty.  When we all \u201cchip in\u201d, that change happens faster and has a greater impact in lifting people out of poverty and towards economic freedom and prosperity.","description":"","website_url":"http:\/\/www.chipinforchange.org","team_since":"2010-05-11T18:36:41Z","membership_type":"open","member_count":12,"loan_count":2956,"loaned_amount":74225},{"id":340,"shortname":"pulse_business_solutions","name":"Pulse Business Solutions","category":"Businesses","image":{"id":199108,"template_id":1},"whereabouts":"Venlo","loan_because":"","description":"","website_url":"http:\/\/www.pulse.nl","team_since":"2008-09-01T12:20:10Z","membership_type":"closed","member_count":71,"loan_count":460,"loaned_amount":11975}]}