{"paging":{"page":1,"total":23,"page_size":20,"pages":2},"teams":[{"id":9392,"shortname":"anu_philosophy","name":"ANU Philosophy","category":"Colleges\/Universities","image":{"id":461607,"template_id":1},"whereabouts":"Canberra, Australia","loan_because":"","description":"People associated, in one way or another, with the philosophy program at the Australian National University. Visitors, sympathisers, interested .. anyone is welcome to join.","website_url":"","team_since":"2009-10-10T23:25:44Z","membership_type":"open","member_count":19,"loan_count":416,"loaned_amount":11025},{"id":9325,"shortname":"stuffyoushouldknow","name":"Stuff You Should Know from HowStuffWorks.com","category":"Friends","image":{"id":401562,"template_id":1},"whereabouts":"Atlanta, GA","loan_because":"We care. ","description":"Arguably the finest assemblage of people who have never met dedicated to the common purpose of hastening global peace in $25 increments. ","website_url":"http:\/\/www.youtube.com\/watch?v=gj1IJ4RxFMU","team_since":"2009-10-06T19:23:45Z","membership_type":"open","member_count":7717,"loan_count":79599,"loaned_amount":2171250},{"id":4359,"shortname":"newmarket","name":"Newmarket Loves You!","category":"Families","whereabouts":"Newmarket, Ontario, Canada","loan_because":"It is fun, rewarding, and a great learning experience. The opportunity to work together with diverse people around the world is inspiring and uplifting for all of us, and it gives our children the chance to learn emotional intelligence and social, green capitalism where everyone wins.","description":"We are an eclectic family group that is spead out and enjoy giving to kiva as gifts to each other instead of another neck tie or car accessory that we don't need!","website_url":"","team_since":"2009-01-13T21:03:23Z","membership_type":"open","member_count":10,"loan_count":70,"loaned_amount":1775},{"id":22887,"shortname":"hollowaywadhwanijun_family","name":"Holloway-Wadhwani-Jun Family","category":"Families","whereabouts":"Canada","loan_because":"","description":"","website_url":"","team_since":"2012-01-27T15:21:21Z","membership_type":"closed","member_count":1,"loan_count":16,"loaned_amount":400},{"id":2450,"shortname":"indiegames","name":"Independent Video Game Developers","category":"Common Interest","image":{"id":221929,"template_id":1},"whereabouts":"Internet","loan_because":"","description":"We are indie game developers -- people who make freeware or shareware games that aren't funded by large publishers. Please join if you're an indie developer or even if you just like playing indie games.","website_url":"http:\/\/indiegames.com\/blog\/","team_since":"2008-11-04T04:06:17Z","membership_type":"open","member_count":104,"loan_count":1567,"loaned_amount":46500},{"id":260,"shortname":"team_canada","name":"Team CANADA","category":"Local Area","image":{"id":850245,"template_id":1},"whereabouts":"Canada","loan_because":"So little means so much. And because we are so fortunate to be able to lend with the luxury of not worrying about whether we ever see that money again, while the clients borrow with the hope and determination that they will be able to repay, and improve their lives along the way.\r\n\r\nCheck out fundraising loans already being supported by Team Canada:\r\nhttp:\/\/www.kiva.org\/team\/team_canada\/loans?status=fundRaising","description":"We're Canadian, eh?","website_url":"http:\/\/www.kiva.org\/team\/team_canada","team_since":"2008-08-31T06:17:49Z","membership_type":"open","member_count":6219,"loan_count":106695,"loaned_amount":3393125},{"id":473,"shortname":"team_obama","name":"Team Obama","category":"Common Interest","image":{"id":223412,"template_id":1},"whereabouts":"Worldwide","loan_because":"We understand that our combined efforts through Kiva will help make this world a much better place!","description":"http:\/\/www.npr.org\/templates\/story\/story.php?storyId=127545645","website_url":"http:\/\/www.cafepress.com\/koy\/6168009","team_since":"2008-09-04T13:36:53Z","membership_type":"open","member_count":4700,"loan_count":72622,"loaned_amount":2051925},{"id":107,"shortname":"norway","name":"Norway","category":"Local Area","image":{"id":852374,"template_id":1},"whereabouts":"Norway","loan_because":"We have Cold Weather - Warm hearts !\r\nWe believe that providing microloans to entrepreneurs in developing countries is the socially responsive way of helping people break the circle of poverty. \r\n\r\nWe promote Kiva.org as a sustainable and transparent way of connecting lenders and borrowers from across the globe.","description":"Bruk denne linken for \u00e5 invitere dine venner til teamet her:\r\nhttp:\/\/www.kiva.org\/team\/norway\/recruit\r\n\r\nDet er flott hvis du trykker Facebook \"anbefale\/recommend\" knappen oppe til h\u00f8yre  p\u00e5 denne siden. V\u00e5r facebookgruppe: http:\/\/www.facebook.com\/pages\/Kiva-Norway\/193432017389484\r\n\r\nAnbefalte l\u00e5n \"sikrere\" l\u00e5n: \r\nhttp:\/\/www.kiva.org\/lend?sortBy=partner_default_min=0&amp;partner;_default_max=0.5&amp;partner;_risk_rating_min=1&amp;partner;_risk_rating_max=5&amp;partner;_arrears_min=0&amp;partner;_arrears_max=1.1\r\n\r\nHjelp med \"expiring loans\": http:\/\/poverty2prosperity.org\/sosloans\/#fundraising_loans\r\n\r\nHjelp med \"postdisbursed\" l\u00e5n:\r\nhttp:\/\/kivatools.com\/fundraising\/postdisbursedloans\r\n\r\nKiva tools:\r\nhttps:\/\/www.kiva.org\/portfolio\/collections\r\nhttp:\/\/www.bhodisoft.com\/kiva-country-collector\/\r\nhttp:\/\/www.bhodisoft.com\/kfpc\/\r\nhttp:\/\/www.kivalens.org\r\n\r\nDa har vi n\u00e5dd m\u00e5let p\u00e5 2 million dollar utl\u00e5nt. Takk til alle som har bidratt!","website_url":"http:\/\/www.kiva.org\/team\/norway?default_team=norway","team_since":"2008-08-29T11:06:52Z","membership_type":"open","member_count":2519,"loan_count":80120,"loaned_amount":2258200},{"id":16422,"shortname":"team_pitman","name":"Team Pitman","category":"Families","image":{"id":657853,"template_id":1},"whereabouts":"Canada","loan_because":"We wish to help others achieve success and happiness.","description":"We are all family members who wish to bring happiness to others!","website_url":"","team_since":"2010-12-04T05:59:48Z","membership_type":"closed","member_count":8,"loan_count":54,"loaned_amount":1400},{"id":12288,"shortname":"braintreevenmo","name":"Braintree\/Venmo","category":"Businesses","image":{"id":492888,"template_id":1},"whereabouts":"Chicago, New York and San Francisco","loan_because":"","description":"","website_url":"http:\/\/getbraintree.com","team_since":"2010-02-21T17:06:50Z","membership_type":"closed","member_count":22,"loan_count":536,"loaned_amount":16125},{"id":1600,"shortname":"women_helping_women_around_the_world","name":"All women helping women around the world","category":"Friends","image":{"id":208326,"template_id":1},"whereabouts":"Around the world","loan_because":"Because women around the wold deserves to get  independent .      ","description":"It\u00b4s my hope that women around the world want to join this team to help other women to get independent and see theire buisness grow.","website_url":"","team_since":"2008-09-29T11:32:07Z","membership_type":"open","member_count":25,"loan_count":237,"loaned_amount":6125},{"id":7166,"shortname":"kiva_new_orleans","name":"Kiva New Orleans","category":"Local Area","image":{"id":860717,"template_id":1},"whereabouts":"New Orleans, Louisiana","loan_because":"","description":"","website_url":"","team_since":"2009-06-11T03:08:21Z","membership_type":"open","member_count":232,"loan_count":1119,"loaned_amount":33350},{"id":28412,"shortname":"mhfi_lending_team","name":"McGraw Hill Financial","category":"Businesses","image":{"id":1473512,"template_id":1},"whereabouts":"","loan_because":"Corporate Responsibility is fundamental to MHFI. It guides who we are, how we conduct ourselves and how we interact with those around us.\r\n\r\nCorporate Responsibility Essentials at MHFI encompass:\r\n\r\n\u2013 Financial Essentials \u2013 we help to provide the fundamental financial knowledge that can build better lives, stronger communities and stable economies and financial markets. \r\n\r\n\u2013 Community Essentials \u2013 we help deploy and foster the resources and skills that lead to smarter, stronger, more inclusive communities. Our employees are integral partners in our dedication to this critical purpose. \r\n\r\n\u2013 Environmental Essentials \u2013 we offer innovative business services that promote sustainability while applying best practice to reduce the environmental footprint of our operations. ","description":"McGraw Hill Financial is a high-growth, high-margin benchmarks, content and analytics company serving the capital and commodity markets. MHFI believes a responsible business is one that delivers value for investors, customers, employees and communities; makes wise use of natural resources; and treats people fairly.\r\n\r\nWe are home to some of the most iconic brands in finance and business, including: Standard &amp; Poor\u2019s Ratings Services, S&amp;P; Capital IQ, S&amp;P; Dow Jones Indices, Platts, J.D. Power, and McGraw Hill Construction. Our independent credit ratings, indices, analytics, price assessments and research provide clients with the essential intelligence to manage risk and identify opportunities to grow.\r\n","website_url":"","team_since":"2013-11-06T21:54:17Z","membership_type":"open","member_count":704,"loan_count":738,"loaned_amount":19750},{"id":22708,"shortname":"tieks_by_gavrieli","name":"Tieks by Gavrieli","category":"Businesses","image":{"id":1335441,"template_id":1},"whereabouts":"Los Angeles","loan_because":"To empower women all over the world.","description":"The Tieks Team is a socially conscious group of people dedicated to lending and empowering women entrepreneurs all over the world.","website_url":"www.tieks.com","team_since":"2012-01-10T23:18:11Z","membership_type":"closed","member_count":1,"loan_count":6638,"loaned_amount":478225},{"id":111,"shortname":"kiva_team_germany","name":"Kiva Team Germany","category":"Local Area","image":{"id":339952,"template_id":1},"whereabouts":"Germany","loan_because":"Showing interest in the life of others and giving a helping hand if needed is important.","description":"We are some fellows from Germany who believe in the concept of Kiva.","website_url":"http:\/\/www.kiva-germany.de","team_since":"2008-08-29T13:16:23Z","membership_type":"open","member_count":1683,"loan_count":51695,"loaned_amount":1481300},{"id":94,"shortname":"atheists","name":"Atheists, Agnostics, Skeptics, Freethinkers, Secular Humanists and the Non-Religious","category":"Common Interest","image":{"id":1401504,"template_id":1},"whereabouts":"Earth","loan_because":"We care about the suffering of human beings.","description":"We know we are one human family.\r\n\r\n**New to the team? Read this: http:\/\/is.gd\/51mxq  \r\n\r\n** FriendFeed:\r\nhttp:\/\/friendfeed.com\/rooms\/aasfshnr\r\n\r\n** Facebook Group:\r\nhttp:\/\/is.gd\/lzMJ\r\n\r\nSECULAR MFI ONLY loan search:\r\nhttp:\/\/goo.gl\/wtDkJ\r\n","website_url":"http:\/\/atheist-monkey.blogspot.com\/","team_since":"2008-08-29T03:40:31Z","membership_type":"open","member_count":27534,"loan_count":454356,"loaned_amount":13277725},{"id":591,"shortname":"barbershop","name":"Barbershop.no","category":"Businesses","image":{"id":1213860,"template_id":1},"whereabouts":"Oslo, Norway.","loan_because":"","description":"","website_url":"http:\/\/www.barbershop.no","team_since":"2008-09-06T20:00:34Z","membership_type":"open","member_count":11,"loan_count":122,"loaned_amount":3050},{"id":191,"shortname":"fsm","name":"Church of the Flying Spaghetti Monster","category":"Religious Congregations","image":{"id":196261,"template_id":1},"whereabouts":"Earth","loan_because":"\"Thou shalt share, that none may seek without funding.\"   A nod to VII.  of \u201cRANDOM NUMBER OF NOT COMMANDMENTS, SUGGESTIONS\"  in the LOOSE CANON:\r\nhttp:\/\/www.loose-canon.info\/page17.htm","description":"Members of the Church of the Flying Spaghetti Monster  \r\n\r\nSecular vs religious Field Partners, see links at http:\/\/atheist-monkey.blogspot.de\/2009\/08\/kiva-mfi-checker.html\r\n\r\nFor Kiva tips and who knows what the FSM will move us to add for mutual benefit &amp; merriment:  \r\nhttp:\/\/flyingspaghettikivans.blogspot.it\/    \r\n\r\nand\r\n  https:\/\/www.facebook.com\/pages\/FlyingSpaghettiKivans\r\n","website_url":"http:\/\/www.venganza.org","team_since":"2008-08-30T09:37:51Z","membership_type":"open","member_count":3783,"loan_count":64973,"loaned_amount":1861175},{"id":178,"shortname":"kiva_france","name":"Kiva France","category":"Local Area","image":{"id":196190,"template_id":1},"whereabouts":"France","loan_because":"","description":"Team of french kiva lenders","website_url":"http:\/\/www.kivafrance.fr\/","team_since":"2008-08-30T05:00:44Z","membership_type":"open","member_count":950,"loan_count":55415,"loaned_amount":1450275},{"id":25606,"shortname":"waldorf_international_community","name":"Waldorf International Community","category":"Common Interest","image":{"id":1255997,"template_id":1},"whereabouts":"International","loan_because":"Everyone deserves a helping hand.","description":"Our team is made up of an eclectic mixture of the international Waldorf Community. We are Waldorf\/Steiner Schools, Classrooms, Students, Alumni, Parents of Students, Teachers &amp; Faculty Members, Anthroposophists, Philanthropists, Bio-dynamic Farmers, Artists, and Poets.\r\nPlease join us in lending a hand to the good people of this world.","website_url":"http:\/\/www.sustainablewaldorf.com","team_since":"2012-12-14T17:16:45Z","membership_type":"open","member_count":13,"loan_count":34,"loaned_amount":1100}]}