{"paging":{"page":1,"total":24,"page_size":20,"pages":2},"teams":[{"id":288,"shortname":"new_york","name":"New York","category":"Local Area","image":{"id":716139,"template_id":1},"whereabouts":"New York City","loan_because":"New York is full of entrepreneurs so we want to support others around the world, and give them the opportunity to alleviate themselves out of poverty.","description":"We are a group of like minded New Yorkers who connect to make a difference.\r\n\r\nPlease note, Team Message unrelated to Kiva New York team lending &amp; activities may be deleted.  Please keep posts related to the team!\r\n\r\nhttp:\/\/gplus.to\/kivany","website_url":"www.kivanyc.com","team_since":"2008-08-31T16:29:41Z","membership_type":"open","member_count":2732,"loan_count":47930,"loaned_amount":1389850},{"id":71,"shortname":"portugal","name":"Portugal","category":"Local Area","image":{"id":195660,"template_id":1},"whereabouts":"Portugueses no mundo \/ Portuguese Worldwide","loan_because":"Honramos o legado deixado pelos nossos antepassados que espalharam cultura, conhecimento e valores por todo o mundo. Onde h\u00e1 um portugu\u00eas, h\u00e1 um amigo pronto a ajudar e dar esperan\u00e7a aos que mais precisam. Isto \u00e9 Portugal.\r\n~ ~ ~ ~ ~ ~\r\nWe honor the legacy of our ancestors who spread our culture, knowledge and values around the world. Wherever there is a Portuguese, there is a friend willing to help and give hope to those in need. This is Portugal.","description":"Portuguese Lenders Team","website_url":"http:\/\/www.visitportugal.com\/","team_since":"2008-08-28T19:20:04Z","membership_type":"open","member_count":801,"loan_count":11991,"loaned_amount":313325},{"id":394,"shortname":"nerdfighters","name":"Nerdfighters","category":"Common Interest","image":{"id":1364412,"template_id":1},"whereabouts":"Nerdfighteria","loan_because":"We aim to decrease world suck.\r\n\r\nAnd this is how:\r\nwww.eludehcs.no\/kiva\/nerdfighters\/nerdfighters20120916.png by Nerdfighter Ole Bendik","description":"We're Nerdfighters! We fight against suck; we fight for awesome! We fight using our brains, our hearts, our calculators, and our trombones.\r\n\r\nHappy lending!\r\n\r\nFollow us on twitter: https:\/\/twitter.com\/KivaNerds","website_url":"youtube.com\/vlogbrothers","team_since":"2008-09-02T16:26:24Z","membership_type":"open","member_count":43719,"loan_count":110967,"loaned_amount":3311900},{"id":240,"shortname":"quebec","name":"Quebec","category":"Local Area","image":{"id":762780,"template_id":1},"whereabouts":"Quebec","loan_because":"We want to help.\r\nNous voulons aider.","description":"The political status of Qu\u00e9bec is a province within the country of Canada (although a portion of the population would prefer Qu\u00e9bec to become sovereign in the future).  The Parliament of Canada has recognized the Qu\u00e9b\u00e9cois as a nation. The largest city in Qu\u00e9bec is Montr\u00e9al, and the capital is also called Qu\u00e9bec (Quebec City). The official language of Qu\u00e9bec is French.\r\n\r\nIf you'd like to come and visit us, the official tourism site of the Qu\u00e9bec government is at http:\/\/www.bonjourquebec.com","website_url":"","team_since":"2008-08-30T22:19:33Z","membership_type":"open","member_count":329,"loan_count":19856,"loaned_amount":552700},{"id":26687,"shortname":"2pc","name":"2PC","category":"Religious Congregations","whereabouts":"Knoxville, TN","loan_because":"","description":"","website_url":"","team_since":"2013-04-19T04:35:11Z","membership_type":"closed","member_count":3,"loan_count":14,"loaned_amount":350},{"id":19768,"shortname":"mad_4_people","name":"MAD 4 People","category":"Friends","image":{"id":1196590,"template_id":1},"whereabouts":"Everywhere","loan_because":"We want to Make A Difference for 100,000 people together.","description":"Ordinary people with a not-so-ordinary shared goal.","website_url":"www.kiva.org\/team\/mad_4_people","team_since":"2011-05-30T22:55:22Z","membership_type":"closed","member_count":46,"loan_count":5826,"loaned_amount":150950},{"id":260,"shortname":"team_canada","name":"Team CANADA","category":"Local Area","image":{"id":850245,"template_id":1},"whereabouts":"Canada","loan_because":"So little means so much. And because we are so fortunate to be able to lend with the luxury of not worrying about whether we ever see that money again, while the clients borrow with the hope and determination that they will be able to repay, and improve their lives along the way.\r\n\r\nCheck out fundraising loans already being supported by Team Canada:\r\nhttp:\/\/www.kiva.org\/team\/team_canada\/loans?status=fundRaising","description":"We're Canadian, eh?","website_url":"http:\/\/www.kiva.org\/team\/team_canada","team_since":"2008-08-31T06:17:49Z","membership_type":"open","member_count":6219,"loan_count":106695,"loaned_amount":3393125},{"id":7280,"shortname":"bobharrisdotcom","name":"Friends of Bob Harris","category":"Common Interest","image":{"id":361025,"template_id":1},"whereabouts":"All over","loan_because":"After stumbling into a job as a luxury travel writer, I saw so much poverty that I decided to turn those paychecks into Kiva loans. Then I visited a bunch of clients, who were amazing, and I've written a book about it called \"The International Bank of Bob\" (Walker\/Bloomsbury, March 5, 2013).\r\n\r\nI hope the book will get more people to feel a greater understanding of Kiva, a better appreciation of the role of microfinance, and most of all, more connected to the rest of the world.\r\n","description":"People who realize that if we switched places with the recipients, they'd loan to us just as happily.  So, fair's fair.","website_url":"http:\/\/www.bank-of-bob.com","team_since":"2009-06-16T17:07:58Z","membership_type":"closed","member_count":1503,"loan_count":137326,"loaned_amount":4227200},{"id":94,"shortname":"atheists","name":"Atheists, Agnostics, Skeptics, Freethinkers, Secular Humanists and the Non-Religious","category":"Common Interest","image":{"id":1401504,"template_id":1},"whereabouts":"Earth","loan_because":"We care about the suffering of human beings.","description":"We know we are one human family.\r\n\r\n**New to the team? Read this: http:\/\/is.gd\/51mxq  \r\n\r\n** FriendFeed:\r\nhttp:\/\/friendfeed.com\/rooms\/aasfshnr\r\n\r\n** Facebook Group:\r\nhttp:\/\/is.gd\/lzMJ\r\n\r\nSECULAR MFI ONLY loan search:\r\nhttp:\/\/goo.gl\/wtDkJ\r\n","website_url":"http:\/\/atheist-monkey.blogspot.com\/","team_since":"2008-08-29T03:40:31Z","membership_type":"open","member_count":27534,"loan_count":454356,"loaned_amount":13277725},{"id":231,"shortname":"environmental_lendors","name":"Give Green - Environmental Loans","category":"Common Interest","image":{"id":209241,"template_id":1},"whereabouts":"International","loan_because":"We want the world to be a better place. ","description":"Made of individual kiva lenders who are concerned about the environmental impacts of their loans. This is a forum to notify each other of environmentally sustainable loans that are needing funding. Sustainable development projects include recycling, solar, re-use, organic agriculture, health, etc. \r\n\r\nWe support enterprises that care about the earth and all of its inhabitants. We have no religious, racial or political affiliations of any kind. We want to encourage sustainable enterprises that recycle, reuse, repurpose and use environmentally sound agricultural and manufacturing practices. \r\nMany of us would like Kiva to develop environmental standards or criteria for their lending practices to prevent environmental impacts that would increase poverty for future generations.\r\nMany people want to have a green portfolio, or at least a green component. \r\nWon't you join us in creating true sustainability that includes a healthy environment?","website_url":"http:\/\/www.kiva.org\/community\/viewTeam?team_id=231","team_since":"2008-08-30T18:31:44Z","membership_type":"open","member_count":1620,"loan_count":22064,"loaned_amount":627425},{"id":96,"shortname":"kiva_mormons","name":"Kiva Mormons","category":"Religious Congregations","image":{"id":202419,"template_id":1},"whereabouts":"Worldwide","loan_because":"\"A man filled with the love of God\r\nis not content with blessing his \r\nfamily alone, but ranges through \r\nthe whole world, anxious to bless \r\nthe whole human race.\"\r\n\r\n- Joseph Smith","description":"Members and friends of the Church of Jesus Christ of Latter-day Saints who are also Kiva lenders.","website_url":"www.mormon.org","team_since":"2008-08-29T04:26:55Z","membership_type":"open","member_count":1449,"loan_count":54091,"loaned_amount":1561925},{"id":147,"shortname":"glbt","name":"GLBT (Gay, Lesbian, Bisexual, Transgender) Kivans &amp; Friends","category":"Common Interest","image":{"id":196421,"template_id":1},"whereabouts":"We are everywhere.","loan_because":"We are out and proud and know what it is like to face barriers. We are privileged to help our entrepreneurs achieve their own equality. We thank our friends who join us in our loans &amp; in supporting GLBT rights. ","description":"We are gay, lesbian, bisexual, transgender, homosexual, and heterosexual people from all over the world. ","website_url":"http:\/\/glbtkiva.pbworks.com\/","team_since":"2008-08-29T23:07:12Z","membership_type":"open","member_count":6186,"loan_count":108886,"loaned_amount":3052125},{"id":116,"shortname":"australia","name":"Australia","category":"Local Area","image":{"id":195915,"template_id":1},"whereabouts":"Australia","loan_because":"Australians all let us rejoice\r\nfor we are young and free,    -   \r\nWe've heard the call of nations wide,\r\nHow can we let this be?    -   \r\nWe'll share our wealth,\r\nWe'll make the change,\r\nWe'll help to set them free   -   \r\nFrom us to them\r\nand back again, \r\nAs one we all shall be      - \r\n\r\n(Thanks to member Jean for this one)\r\n\r\nFind us on Facebook at http:\/\/www.facebook.com\/group.php?gid=97953452142","description":"Kiva Loaners in Australia","website_url":"","team_since":"2008-08-29T14:32:01Z","membership_type":"open","member_count":5381,"loan_count":132014,"loaned_amount":3634450},{"id":22708,"shortname":"tieks_by_gavrieli","name":"Tieks by Gavrieli","category":"Businesses","image":{"id":1335441,"template_id":1},"whereabouts":"Los Angeles","loan_because":"To empower women all over the world.","description":"The Tieks Team is a socially conscious group of people dedicated to lending and empowering women entrepreneurs all over the world.","website_url":"www.tieks.com","team_since":"2012-01-10T23:18:11Z","membership_type":"closed","member_count":1,"loan_count":6638,"loaned_amount":478225},{"id":981,"shortname":"austin_texas","name":"Kiva Austin Texas","category":"Local Area","image":{"id":212592,"template_id":1},"whereabouts":"Austin, TX","loan_because":"We are big-hearted Texans and citizens of the world who enjoy sharing our prosperity and making a positive difference in the world.","description":"a delightfully diverse group of Austinites. Be proud, Team Austin--our Kiva team is second only to NYC (with nearly 4X as many members!) for total lending for a city team. \r\nAnd a hearty WELCOME!! to all our new members.","website_url":"","team_since":"2008-09-11T05:37:16Z","membership_type":"open","member_count":699,"loan_count":18444,"loaned_amount":659400},{"id":7039,"shortname":"teachers_rock","name":"Teachers  Rock!","category":"Common Interest","image":{"id":329950,"template_id":1},"whereabouts":"Everywhere Where Kids Are Cherished  ","loan_because":"We want to support the teachers of the world.  Teachers too often are among the most underpaid, undervalued but incalculably important members of our societies.   We want to support teachers in both their private and professional endeavors as a way of expressing our terrific appreciation for the work that they do and the near infinite ways they give of themselves to our children.","description":"We are teachers, former teachers, volunteer teachers, current or former students of teachers, or simply, admirers and valuers of teachers.   We have in common that every one of us can think of at least one teacher in our lives who profoundly touched us or comforted us or inspired us or otherwise affected the ways our minds were expanded or our hearts nourished.  We deeply believe in compassion and sharing and kindness and empathy and community, and we profoundly understand that those qualities don\u2019t evolve automatically in our youth but have to be taught.\r\n\r\n","website_url":"","team_since":"2009-06-03T23:43:10Z","membership_type":"open","member_count":112,"loan_count":1816,"loaned_amount":48400},{"id":5824,"shortname":"kiva_ky1230","name":"KivaKY1230","category":"Local Area","whereabouts":"State of Kentucky (or In Honor Of...)","loan_because":"we want to raise our reputation for \"southern hospitality\" to a tangible level by making a positive difference in our global neighbors' lives.","description":"Ordinary people from a very special state, located in the heart of the eastern half of the US, who want to  give a \"hand up\" to our neighbors  around the world.","website_url":"","team_since":"2009-03-25T15:27:22Z","membership_type":"open","member_count":21,"loan_count":2698,"loaned_amount":128675},{"id":13515,"shortname":"chipinforchange","name":"Chip In for Change","category":"Other","image":{"id":857556,"template_id":1},"whereabouts":"","loan_because":"it is imperative that we take action to change the current state of global poverty.  When we all \u201cchip in\u201d, that change happens faster and has a greater impact in lifting people out of poverty and towards economic freedom and prosperity.","description":"","website_url":"http:\/\/www.chipinforchange.org","team_since":"2010-05-11T18:36:41Z","membership_type":"open","member_count":12,"loan_count":2956,"loaned_amount":74225},{"id":3001,"shortname":"onemilliondollarteam","name":"One Million Dollar Team","category":"Schools","image":{"id":233076,"template_id":1},"whereabouts":"","loan_because":"Live simply that others may simply live. -Ghandi.\r\n\r\nWe must be the change we wish to see in the world. -Ghandi.\r\n\r\nI want to show my students that with the help of others we can loan $1,000,000 and make a huge difference in the lives of others around the world.  Help us as we join together to change the world!","description":"We want to loan $1,000,000.  We want to join together with others to help make a positive difference in the world.","website_url":"http:\/\/www.elanco.org\/webpages\/dsmith\/index.cfm","team_since":"2008-12-01T03:07:53Z","membership_type":"open","member_count":64,"loan_count":2927,"loaned_amount":73775},{"id":283,"shortname":"christians","name":"Kiva Christians","category":"Friends","image":{"id":471653,"template_id":1},"whereabouts":"Worldwide","loan_because":"Pure and undefiled religion before God the Father is this: to care for orphans and widows in their misfortune and to keep oneself unstained by the world. (Jam. 1:27)\r\n\r\nLink to information regarding Christian partners       \r\nwww.gerv.net\/info\/christian-field-partners","description":"A group of believers in Jesus Christ, brought together through a common purpose: to help those in need around the world.    \r\n","website_url":"http:\/\/whoisjesus-really.com\/","team_since":"2008-08-31T15:33:31Z","membership_type":"open","member_count":12479,"loan_count":259333,"loaned_amount":9051175}]}